Machine Learning – Description
…
To run the code on this page, you will need the tidyverse package.

library(tidyverse)

We will also set the seed so that it is possible to exactly reproduce these results.

set.seed(90095)

Prepare data

We first load the simulate function (see Simulate a Sample) to create a sample of 1,000 observations. We make the sample larger because many ML models will perform better at larger sample sizes.

simulated <- simulate(n = 1000)

# A tibble: 1,000 × 4
   year   age sex     income
  <dbl> <dbl> <chr>    <dbl>
1  2011    48 female 351418.
2  2012    38 female  28066.
3  2013    38 female 133671.
# ℹ 997 more rows
…
